<?xml version="1.0" encoding="utf-8"?>
<!-- Generator: Adobe Illustrator 16.0.0, SVG Export Plug-In . SVG Version: 6.00 Build 0)  -->
<!DOCTYPE svg PUBLIC "-//W3C//DTD SVG 1.1//EN" "http://www.w3.org/Graphics/SVG/1.1/DTD/svg11.dtd">
<svg version="1.1" id="Layer_1" xmlns="http://www.w3.org/2000/svg" xmlns:xlink="http://www.w3.org/1999/xlink" x="0px" y="0px"
	 width="100px" height="100px" viewBox="-31.5 -26.5 100 100" enable-background="new -31.5 -26.5 100 100" xml:space="preserve">
<title>Cheese_icons-05</title>
<desc>Created with Sketch.</desc>
<g id="Новая-эстетика">
	<g id="Рецепты" transform="translate(-232.000000, -438.000000)">
		<g id="Cheese_icons-05" transform="translate(232.000000, 438.000000)">
			<path id="Shape" fill="#3A3D70" d="M56.264-9.077l-1.099,56.454c-0.185,2.642-1.19,5.197-2.932,7.202L36.569,68.532
				c-1.739,2.007-3.847,3.467-6.228,4.287L30.8,10.896L56.264-9.077z"/>
			
				<linearGradient id="Shape_8_" gradientUnits="userSpaceOnUse" x1="-69.3428" y1="112.6543" x2="-67.1917" y2="112.6543" gradientTransform="matrix(22.923 0 0 -34.9118 1571.0746 3968.9731)">
				<stop  offset="0" style="stop-color:#BAD3E8"/>
				<stop  offset="0.1303" style="stop-color:#C5D4D2"/>
				<stop  offset="0.736" style="stop-color:#EED767"/>
				<stop  offset="1" style="stop-color:#FDD91E"/>
			</linearGradient>
			<path id="Shape_1_" fill="url(#Shape_8_)" d="M30.891,10.896L-18.482-1.598l1.008,34.836l0.642,14.139l0.366,8.48
				c0.092,2.007,1.375,3.74,3.207,4.377l33.342,12.312c3.391,1.367,7.055,1.367,10.261,0.183L30.891,10.896z"/>
			<path id="Shape_2_" fill="#FFFFFF" d="M30.434,61.692c-1.834,1.553-4.581,2.189-7.055,1.369l-40.121-15.597l-0.642-14.135
				c6.595,2.28,30.778,10.944,40.855,14.501c2.381,0.82,5.221,0.273,7.144-1.276L30.434,61.692z"/>
			<ellipse id="Oval" fill="#FFFFFF" cx="38.768" cy="17.279" rx="2.749" ry="3.374"/>
			<ellipse id="Oval_1_" fill="#FFFFFF" cx="48.477" cy="9.528" rx="2.749" ry="3.375"/>
			<ellipse id="Oval_2_" fill="#FFFFFF" cx="38.587" cy="33.604" rx="2.747" ry="3.374"/>
			<ellipse id="Oval_3_" fill="#FFFFFF" cx="48.477" cy="25.215" rx="2.749" ry="3.375"/>
			<ellipse id="Oval_4_" fill="#FFFFFF" cx="38.768" cy="50.932" rx="2.749" ry="3.374"/>
			<ellipse id="Oval_5_" fill="#FFFFFF" cx="47.745" cy="41.904" rx="2.749" ry="3.374"/>
			<ellipse id="Oval_6_" fill="#FFFFFF" cx="-9.597" cy="10.896" rx="3.664" ry="4.286"/>
			<ellipse id="Oval_7_" fill="#FFFFFF" cx="5.151" cy="15" rx="3.664" ry="4.287"/>
			<ellipse id="Oval_8_" fill="#FFFFFF" cx="20.998" cy="20.016" rx="3.664" ry="4.286"/>
			<ellipse id="Oval_9_" fill="#FFFFFF" cx="-10.421" cy="25.487" rx="3.664" ry="4.286"/>
			<ellipse id="Oval_10_" fill="#FFFFFF" cx="4.327" cy="29.59" rx="3.664" ry="4.287"/>
			<ellipse id="Oval_11_" fill="#FFFFFF" cx="20.081" cy="34.607" rx="3.664" ry="4.287"/>
			<path id="Shape_3_" fill="#BAD3E8" d="M-3.551,40.537v-0.732c0-0.547-0.458-1.001-1.008-1.001c-0.55,0-1.007,0.454-1.007,1.001
				v0.732c0,1.184,0,2.368,0,3.646l0,0c-0.366,0.091-0.916,0.091-1.099,0c-0.274-0.092-0.55-0.547-0.733-1.186
				c-0.183-1.094-0.183-2.646,0.091-3.921c0.092-0.547-0.274-1.006-0.824-1.094c-0.549-0.093-1.008,0.273-1.099,0.82
				c-0.183,1.184-0.274,3.008-0.092,4.56c0.183,1.094,0.825,2.554,2.29,2.827c0,0,0.367,0.091,0.825,0.091c0.184,0,0.367,0,0.642,0
				c0,1.369,0,2.644,0,3.83c0,0.547,0.458,0.913,1.007,0.913c0.55,0,1.008-0.457,0.916-1.006
				C-3.551,47.011-3.551,43.545-3.551,40.537z"/>
			<path id="Shape_4_" fill="#BAD3E8" d="M4.51,52.848c-0.458-3.283-1.19-8.847-1.558-11.036c-0.091-0.454-0.458-0.728-0.916-0.82
				c-0.458,0-0.824,0.183-1.007,0.64c-1.19,3.1-2.29,6.2-3.206,9.394c-0.184,0.547,0.183,1.001,0.732,1.186
				c0.55,0.089,1.008-0.185,1.191-0.731s0.274-1.001,0.458-1.548l2.015,0.637c0.092,0.911,0.184,1.731,0.275,2.463l0.092,0.455
				c0.091,0.456,0.458,0.82,1.007,0.82h0.091c0.55-0.091,0.916-0.547,0.825-1.094V52.848z M0.846,48.197
				c0.274-0.82,0.549-1.553,0.825-2.373c0.091,0.82,0.274,1.733,0.366,2.737L0.846,48.197z"/>
			<path id="Shape_5_" fill="#BAD3E8" d="M13.303,58.138L13.303,58.138c-0.549,0-1.007-0.456-1.007-1.005
				c0-1.095,0.091-2.28,0.091-3.374c0-1.002,0-2.007,0.092-3.101l-0.916,1.187c-0.915,1.276-1.924,2.461-3.114,3.557
				c-0.274,0.273-0.733,0.273-1.007,0.183c-0.366-0.183-0.55-0.547-0.55-0.913l0.184-9.12c0-0.547,0.458-0.912,1.008-0.912l0,0
				c0.549,0,1.007,0.458,1.007,1.005l-0.091,6.655c0.366-0.454,0.824-1.001,1.19-1.548l2.839-3.74
				c0.274-0.366,0.733-0.456,1.099-0.366c0.367,0.184,0.642,0.547,0.642,1.006c-0.091,2.095-0.183,4.194-0.183,6.108
				c0,1.094-0.091,2.279-0.091,3.374C14.219,57.682,13.853,58.138,13.303,58.138z"/>
			<path id="Shape_6_" fill="#BAD3E8" d="M12.112,46.371c-0.091,0-0.183,0-0.366-0.09c0,0-1.008-0.364-1.649-0.73
				c-0.458-0.273-0.641-0.82-0.458-1.276c0.276-0.456,0.825-0.638,1.283-0.456c0.458,0.183,1.19,0.547,1.465,0.639
				c0.55,0.182,0.733,0.729,0.55,1.277C12.845,46.19,12.479,46.371,12.112,46.371z"/>
			<path id="Shape_7_" fill="#FDD91E" d="M-20.589-6.706l-0.274,3.192c-0.093,1.276,0.732,2.463,2.015,2.828l43.969,11.856
				c3.845,1.094,8.06,0.182,11.173-2.372L56.355-8.073c0.825-0.639,1.283-1.551,1.283-2.645l0.182-2.827
				c0.092-1.095-0.64-2.006-1.647-2.28L16.967-26.041c-2.931-0.729-6.045-0.365-8.702,1.095L-17.841-10.81
				C-19.49-9.989-20.497-8.438-20.589-6.706z"/>
		</g>
	</g>
</g>
</svg>
