<?xml version="1.0" encoding="utf-8"?>
<!-- Generator: Adobe Illustrator 16.0.0, SVG Export Plug-In . SVG Version: 6.00 Build 0)  -->
<!DOCTYPE svg PUBLIC "-//W3C//DTD SVG 1.1//EN" "http://www.w3.org/Graphics/SVG/1.1/DTD/svg11.dtd">
<svg version="1.1" id="Layer_1" xmlns="http://www.w3.org/2000/svg" xmlns:xlink="http://www.w3.org/1999/xlink" x="0px" y="0px"
	 width="100px" height="100px" viewBox="-28 -25.5 100 100" enable-background="new -28 -25.5 100 100" xml:space="preserve">
<title>Cheese_icons-11</title>
<desc>Created with Sketch.</desc>
<g id="Новая-эстетика">
	<g id="Рецепты" transform="translate(-226.000000, -234.000000)">
		<g id="Cheese_icons-11" transform="translate(226.000000, 234.000000)">
			<path id="Shape" fill="#BAD3E8" d="M64.318,25.421c0,1.079-0.177,2.156-0.626,3.146c-3.04,7.547-16.731,13.568-34.269,15.097
				c-0.536-9.525-1.431-27.496-1.609-36.572C48.571,8.529,64.318,16.167,64.318,25.421z"/>
			<path id="Shape_1_" fill="#3A3D70" d="M29.424,43.663c-2.504,0.179-5.099,0.358-7.694,0.358c-0.358,0-0.715,0-0.984,0
				c-21.652,0-38.294-6.648-41.516-15.455c-0.358-0.989-0.537-2.066-0.537-3.146c0-10.243,17.984-18.6,42.142-18.6
				c2.415,0,4.832,0.09,7.158,0.27C27.993,16.167,28.888,34.138,29.424,43.663z"/>
			<path id="Shape_2_" fill="#3A3D70" d="M53.491-18.608c0,0-2.233-9.075,7.786-6.559c9.305,2.336,2.953,8.986,2.953,8.986
				s-0.538,19.857-0.985,31.808c-0.447,11.95-9.126,40.254-9.126,40.254l-28.273-7.457c0,0,9.306-36.033,12.706-41.513
				C43.114-0.637,51.614-14.204,53.491-18.608z"/>
			
				<linearGradient id="Shape_9_" gradientUnits="userSpaceOnUse" x1="-54.3394" y1="112.9199" x2="-52.2908" y2="112.9199" gradientTransform="matrix(11.9262 0 0 -31.5 655.8282 3569.2654)">
				<stop  offset="0.3065" style="stop-color:#3A3D70"/>
				<stop  offset="0.4033" style="stop-color:#575C87"/>
				<stop  offset="0.5012" style="stop-color:#70789E"/>
				<stop  offset="0.6006" style="stop-color:#8794B4"/>
				<stop  offset="0.7" style="stop-color:#9BADC9"/>
				<stop  offset="0.7996" style="stop-color:#ABC0D9"/>
				<stop  offset="0.8994" style="stop-color:#B6CEE4"/>
				<stop  offset="1" style="stop-color:#BAD3E8"/>
			</linearGradient>
			<path id="Shape_3_" fill="url(#Shape_9_)" d="M32.109,44.021l-8.591,0.628c0,0,0.807-44.118-2.236-53.104
				c-0.447-1.348-0.984-2.067-1.61-2.067c-0.089,0-0.179,0-0.358,0.09c-4.563,1.618-2.953,39.627-2.953,39.627l-8.32-3.864
				c0,0-2.954-40.795,9.215-45.018c0.627-0.27,1.343-0.359,2.148-0.359c2.416,0,4.383,1.437,5.995,3.953
				C33.632-3.333,32.109,44.021,32.109,44.021z"/>
			<path id="Shape_4_" fill="#BAD3E8" d="M-21.933-2.793c0,0,18.521-7.188,32.121,13.388c14.225,21.656,12.974,45.287,12.974,45.287
				l-34.179-11.77L-21.933-2.793z"/>
			<path id="Shape_5_" fill="#FDD91E" d="M5.625,46.358l-27.021-9.884l-0.268-15.905l-0.179-10.873l-0.179-12.49
				C-21.933-2.793,0.972,4.754,5.625,46.358z"/>
			
				<linearGradient id="Shape_10_" gradientUnits="userSpaceOnUse" x1="-70.8848" y1="110.042" x2="-70.0527" y2="107.3896" gradientTransform="matrix(43.6202 0 0 -23.8007 3097.2537 2629.0291)">
				<stop  offset="0" style="stop-color:#3A3D70"/>
				<stop  offset="0.1367" style="stop-color:#565B86"/>
				<stop  offset="0.2795" style="stop-color:#70779D"/>
				<stop  offset="0.4242" style="stop-color:#8693B4"/>
				<stop  offset="0.5686" style="stop-color:#9AACC8"/>
				<stop  offset="0.7127" style="stop-color:#ABC0D9"/>
				<stop  offset="0.8566" style="stop-color:#B6CEE4"/>
				<stop  offset="1" style="stop-color:#BAD3E8"/>
			</linearGradient>
			<path id="Shape_6_" fill="url(#Shape_10_)" d="M62.529,55.703c-4.92,12.04-22.548,18.779-40.531,18.688
				c-20.311,0-35.074-7.815-41.068-19.768c-2.774-5.481-5.369-12.399-2.416-29.022c0,1.077,0.269,1.976,0.626,3.055
				c3.221,8.805,19.953,15.456,41.516,15.456c0.358,0,0.715,0,0.983,0c21.117-0.181,38.563-6.829,42.052-15.456
				c0.449-0.988,0.626-2.065,0.626-3.145C64.318,25.421,70.941,35.127,62.529,55.703z"/>
			<path id="Shape_7_" fill="#FFFFFF" d="M60.293-15.552c0,0-3.043,26.238-5.814,33.247c0,0,4.204,2.335,4.741,0.629
				c0.538-1.707,2.684-33.426,2.684-33.426L60.293-15.552z"/>
			<path id="Shape_8_" fill="#FFFFFF" d="M-14.596,15.088c0,3.145-2.505,5.661-5.458,5.661c-0.538,0-0.985-0.089-1.432-0.18
				l-0.179-10.873c0.537-0.18,1.073-0.269,1.611-0.269C-17.102,9.428-14.596,11.943-14.596,15.088z"/>
			
				<ellipse id="Oval" transform="matrix(-0.1433 -0.9897 0.9897 -0.1433 -35.1386 25.2789)" fill="#FFFFFF" cx="-6.628" cy="27.848" rx="4.313" ry="3.669"/>
		</g>
	</g>
</g>
</svg>
