<?xml version="1.0" encoding="utf-8"?>
<!-- Generator: Adobe Illustrator 16.0.0, SVG Export Plug-In . SVG Version: 6.00 Build 0)  -->
<!DOCTYPE svg PUBLIC "-//W3C//DTD SVG 1.1//EN" "http://www.w3.org/Graphics/SVG/1.1/DTD/svg11.dtd">
<svg version="1.1" id="Layer_1" xmlns="http://www.w3.org/2000/svg" xmlns:xlink="http://www.w3.org/1999/xlink" x="0px" y="0px"
	 width="100px" height="100px" viewBox="-28 -27 100 100" enable-background="new -28 -27 100 100" xml:space="preserve">
<title>Cheese_icons-10</title>
<desc>Created with Sketch.</desc>
<g id="Новая-эстетика">
	<g id="Рецепты" transform="translate(-69.000000, -336.000000)">
		<g id="Cheese_icons-10" transform="translate(69.000000, 336.000000)">
			<polygon id="Shape" fill="#BAD3E8" points="-26.18,2.859 8.664,-11.696 70.18,-4.418 37.685,10.326 			"/>
			
				<linearGradient id="Shape_8_" gradientUnits="userSpaceOnUse" x1="-67.001" y1="112.1641" x2="-68.2915" y2="110.0883" gradientTransform="matrix(29.4757 0 0 -31.9421 2000.947 3586.2188)">
				<stop  offset="0" style="stop-color:#BAD3E8"/>
				<stop  offset="0.3107" style="stop-color:#B8D0E6"/>
				<stop  offset="0.4488" style="stop-color:#B1C7DF"/>
				<stop  offset="0.5527" style="stop-color:#A6BAD4"/>
				<stop  offset="0.6396" style="stop-color:#97A9C6"/>
				<stop  offset="0.7159" style="stop-color:#8794B5"/>
				<stop  offset="0.7846" style="stop-color:#757DA2"/>
				<stop  offset="0.8477" style="stop-color:#60668F"/>
				<stop  offset="0.9048" style="stop-color:#4A4E7D"/>
				<stop  offset="0.9409" style="stop-color:#3A3D70"/>
			</linearGradient>
			<path id="Shape_1_" fill="url(#Shape_8_)" d="M-26.18,59.474V2.859l63.865,7.467l0.938,62.76l-61.609-9.924
				C-24.771,62.879-26.18,61.271-26.18,59.474z"/>
			<path id="Shape_2_" fill="#3A3D70" d="M70.18-4.418L37.778,10.326l0.938,62.76l28.93-17.58c1.503-0.944,2.44-2.647,2.44-4.444
				v-55.48H70.18z"/>
			<polygon id="Shape_3_" fill="#FDD91E" points="0.587,66.941 0.587,5.979 12.139,7.396 12.139,68.833 			"/>
			<polygon id="Shape_4_" fill="#FDEDDE" points="53.933,63.823 52.243,3.805 58.723,0.875 59.475,60.515 			"/>
			<polygon id="Shape_5_" fill="#FDEDDE" points="-10.214,-3.757 52.243,3.805 58.723,0.875 -3.358,-6.687 			"/>
			<polygon id="Shape_6_" fill="#FDEDDE" points="0.587,5.979 36.184,-8.389 47.64,-7.065 12.139,7.396 			"/>
			<path id="Shape_7_" fill="#FDD91E" d="M44.823-23.605c-3.101-3.12-6.763-3.309-6.763-3.309
				c-7.515,1.985-12.586,10.586-15.309,16.824c-1.879-4.253-5.259-11.059-8.265-12.854c-4.415-2.646-16.06-3.781-17.094-0.472
				c-2.629,8.79,7.514,17.202,18.502,21.077l-30.523,6.616v18.148l6.198,1.605l1.409-18.997l27.143-6.238
				c0.282,0,0.563,0.095,0.846,0.095l0.938,9.734l0.189,31.758h6.95V9.381L24.912-1.678c5.634-2.93,17.562-9.357,21.509-12.098
				C51.586-17.556,47.921-20.393,44.823-23.605z M1.902-22.377c3.38,1.229,16.436,18.999,16.436,18.999s-8.17-3.781-14.933-9.263
				C-3.358-18.124-1.479-23.605,1.902-22.377z M24.255-3.284c0.095-0.379,0.188-0.757,0.188-1.041
				c3.756-5.009,15.495-19.753,19.534-16.352C48.768-16.8,44.634-13.586,24.255-3.284z"/>
		</g>
	</g>
</g>
</svg>
