<?xml version="1.0" encoding="utf-8"?>
<!-- Generator: Adobe Illustrator 16.0.0, SVG Export Plug-In . SVG Version: 6.00 Build 0)  -->
<!DOCTYPE svg PUBLIC "-//W3C//DTD SVG 1.1//EN" "http://www.w3.org/Graphics/SVG/1.1/DTD/svg11.dtd">
<svg version="1.1" id="Layer_1" xmlns="http://www.w3.org/2000/svg" xmlns:xlink="http://www.w3.org/1999/xlink" x="0px" y="0px"
	 width="100px" height="100px" viewBox="0 0 100 100" enable-background="new 0 0 100 100" xml:space="preserve">
<path fill="#231F20" d="M92.353,100H7.648C3.423,100,0,96.576,0,92.353c0-4.225,3.423-7.648,7.648-7.648h77.056V7.648
	C84.704,3.423,88.128,0,92.353,0C96.576,0,100,3.423,100,7.648v84.705C100,96.576,96.576,100,92.353,100z"/>
</svg>
