<?xml version="1.0" encoding="utf-8"?>
<!-- Generator: Adobe Illustrator 16.0.0, SVG Export Plug-In . SVG Version: 6.00 Build 0)  -->
<!DOCTYPE svg PUBLIC "-//W3C//DTD SVG 1.1//EN" "http://www.w3.org/Graphics/SVG/1.1/DTD/svg11.dtd">
<svg version="1.1" id="Layer_1" xmlns="http://www.w3.org/2000/svg" xmlns:xlink="http://www.w3.org/1999/xlink" x="0px" y="0px"
	 width="100px" height="100px" viewBox="-36 -40 100 100" enable-background="new -36 -40 100 100" xml:space="preserve">
<title>Group Copy</title>
<desc>Created with Sketch.</desc>
<g id="Новая-эстетика">
	<g id="Личный-кабинет" transform="translate(-1188.000000, -1694.000000)">
		<g id="Group-10" transform="translate(0.000000, 1579.000000)">
			<g id="Group-8">
				<g id="Group-7" transform="translate(1188.000000, 115.649718)">
					<g id="Group-Copy">
						<g id="Логотип">
							<polyline id="Fill-18-Copy" points="36.286,9.554 64,-8.385 64,-24.566 14,9.554 64,43.674 64,27.494 36.286,9.554 							
								"/>
							<polyline id="Fill-19-Copy" points="13.934,-24.566 -36,-14.652 13.934,-6.566 -36,1.521 13.934,9.609 -36,17.693 
								13.934,25.781 -36,33.869 14,43.674 13.934,-24.566 							"/>
						</g>
					</g>
				</g>
			</g>
		</g>
	</g>
</g>
</svg>
