<?xml version="1.0" encoding="utf-8"?>
<!-- Generator: Adobe Illustrator 16.0.0, SVG Export Plug-In . SVG Version: 6.00 Build 0)  -->
<!DOCTYPE svg PUBLIC "-//W3C//DTD SVG 1.1//EN" "http://www.w3.org/Graphics/SVG/1.1/DTD/svg11.dtd">
<svg version="1.1" id="Layer_1" xmlns="http://www.w3.org/2000/svg" xmlns:xlink="http://www.w3.org/1999/xlink" x="0px" y="0px"
	 width="100px" height="100px" viewBox="0 -38 100 100" enable-background="new 0 -38 100 100" xml:space="preserve">
<title>Fill 1</title>
<desc>Created with Sketch.</desc>
<g id="Новая-эстетика">
	<g id="Личный-кабинет" transform="translate(-539.000000, -1692.000000)">
		<g id="Group-10" transform="translate(0.000000, 1579.000000)">
			<g id="Group-8">
				<path id="Fill-1" d="M631.331,157.906c-0.718,7.009-0.659,8.626-8.685,10.252c-3.568,0.718-9.918-0.194-13.76-0.211
					c0.266-5.662,0.473-10.488,0.304-16.18c-0.109-3.669-0.19-7.558-0.283-11.416c1.022-0.093,1.608-0.152,2.635-0.216
					c0.912-0.051,1.946,0.06,2.829,0.047c1.262-0.017,2.377-0.507,3.022-2.052c2.082-4.974,5.831-10.632,5.299-16.245
					c0.08-0.416,0.034-0.849-0.215-1.229c-1.693-2.586-5.62-1.714-8.271-1.678c-1.528,0.025-3.264,0.171-5.02-0.479
					c-0.232-2.39-0.161-4.516,0.409-6.922c0.38-1.61,0.727-2.052,2.432-2.122c1.977-0.082,3.943-0.013,5.924-0.125
					c0.502-0.029,0.938-0.158,1.313-0.353c0.557-0.086,1.68-0.711,1.916-1.961c0.558-2.947,0.427-8.098,0.194-12.386
					c-0.076-1.505-1.815-2.377-3.322-2.98c-5.971-2.39-18.13-1.52-23.754,2.852c-3.74,2.909-5.26,6.937-6.012,11.568
					c-0.644,3.956-1.334,8.246-1.535,12.366c0,0-0.891,0.028-1.091,0.015c-2.565-0.148-5.246,0.335-7.813,0.369
					c-1.461,0.019-2.379,0.861-2.813,1.936c-0.015,0.036-0.042,0.059-0.051,0.093c-0.02,0.049-0.027,0.102-0.047,0.152
					c-0.021,0.057-0.035,0.116-0.055,0.178c-0.992,2.827-0.998,5.275-1.047,8.256c-0.051,2.685-0.487,6.438,1.106,8.719
					c0.707,1.013,1.767,1.241,2.766,1.334c1.692,0.144,3.462,0.371,5.129,0.431c1.757,0.059,4.408-0.11,6.165-0.042
					c0.071,5.323-0.134,10.082,0,14.371c0.12,3.91-0.056,8.977,0,13.532c-8.208-0.029-16.656-0.063-24.862,0.029
					c-5.742,0.063-12.402,0.447-15.205-2.005c-2.962-2.597-2.647-5.924-2.867-11.088c-0.466-10.947-0.675-22.355-0.851-33.411
					c-0.08-5.166,0.335-10.359,0.431-15.571c0.074-4.383,0.213-12.113,1.165-16.374c2.088-9.335,7.247-8.315,15.526-8.26
					c21.753,0.147,41.414,0.2,63.171,0.249c0.013,0,2.111,0.16,2.124,0.16c8.119,7.516,3.96,44.288,3.943,53.57
					C631.563,142.192,632.15,149.952,631.331,157.906 M638.057,135.082c0.013-15.609,1.693-33.513-0.907-48.902
					c-0.921-5.472-2.711-8.794-7.495-10.285c-0.853-0.268-1.452-0.19-2.064-0.192c-15.423-0.086-30.842,0.095-46.271,0.104
					c-9.998,0.006-27.196-2.174-33.787,0.612c-6.361,2.685-7.138,6.99-7.279,13.405c-0.222,10.006-0.456,20.589-0.868,30.905
					c-0.285,7.218,0.097,14.75,0.211,21.847c0.121,7.49-1.049,17.134,1.108,24.366c1.72,5.767,5.839,6.882,11.304,7.278
					c13.32,0.976,27.083,0.321,40.429,0.16c2.352-0.025,3.47-1.57,3.445-3.647c0.451-6.3,0.151-12.649-0.136-17.703
					c-0.287-4.97-0.853-10.289-0.958-15.474c-0.029-1.782-1.664-3.34-3.593-3.234c-2.778,0.16-6.027,0.165-8.81,0.271
					c-0.669,0.025-1.968,0-2.609,0.042c-0.006-1.942-0.186-4.116-0.189-5.869c-0.003-1.436,0.048-3.224,0.428-4.511
					c1.862-0.156,3.747,0.141,5.646,0.175c1.486,0.032,2.85-0.036,4.013-0.652c0.992-0.16,1.932-0.823,2.366-2.069
					c2.137-6.052,1.225-17.37,5.771-22.149c4.902-5.155,15.626-3.684,17.665-3.221c-0.071,2.269,0.232,4.406-0.017,6.686
					c-4.251-0.182-8.532-0.41-10.994,3.665c-2.199,3.64-2.09,9.85-1.554,14.309c0.109,0.914,0.245,1.799,1.102,2.137
					c2.402,1.38,7.11,0.779,9.729,0.838c0.886,0.019,2.034,0.171,3.217,0.251c-2.026,3.348-3.778,6.983-5.362,10.458
					c-0.004,0.013-0.008,0.038-0.017,0.056c-0.009,0-0.025,0-0.038,0c-1.862-0.114-3.732-0.229-5.594-0.144
					c-0.592,0.025-1.048,0.219-1.453,0.48c-0.025,0.018-0.046,0.051-0.076,0.068c-0.911,0.646-1.418,1.621-1.52,2.697
					c-0.439,4.539-0.321,9.369-0.296,13.929c0.038,6.785,0.351,13.207,0.305,19.987c-0.018,2.386,1.685,2.964,4.104,2.938
					c0.034,0,1.09-0.008,1.123-0.008c8.183-0.245,21.043,2.643,26.844-5.324C640.855,161.293,638.044,144.244,638.057,135.082"/>
			</g>
		</g>
	</g>
</g>
</svg>
