<?xml version="1.0" encoding="utf-8"?>
<!-- Generator: Adobe Illustrator 16.0.0, SVG Export Plug-In . SVG Version: 6.00 Build 0)  -->
<!DOCTYPE svg PUBLIC "-//W3C//DTD SVG 1.1//EN" "http://www.w3.org/Graphics/SVG/1.1/DTD/svg11.dtd">
<svg version="1.1" id="Layer_1" xmlns="http://www.w3.org/2000/svg" xmlns:xlink="http://www.w3.org/1999/xlink" x="0px" y="0px"
	 width="100px" height="100px" viewBox="0 -26 100 100" enable-background="new 0 -26 100 100" xml:space="preserve">
<title>Ресурс 1 (1)</title>
<desc>Created with Sketch.</desc>
<path d="M23.37,62.199c0.717-0.988,0.502-2.297-0.83-3.246l-1.441-1.027l1.26-1.755l-1.177-0.84l-3.775,5.271l2.611,1.859
	C21.351,63.411,22.653,63.185,23.37,62.199z M22.177,61.352c-0.385,0.539-1.02,0.516-1.714,0.023l-1.211-0.863l1.189-1.641
	l1.212,0.848C22.347,60.223,22.562,60.812,22.177,61.352z M35.137,63.021l0.012-0.008c-0.908-0.353-1.93-0.259-2.759,0.256
	l0.344-0.952l-1.212-0.434l-3.197,8.885l1.363,0.488l1.287-3.583c0.332,0.826,1.014,1.463,1.861,1.739
	c1.838,0.668,3.57-0.349,4.188-2.101C37.644,65.562,36.972,63.675,35.137,63.021z M35.646,66.815
	c-0.449,1.193-1.531,1.736-2.641,1.34c-0.846-0.307-1.43-1.082-1.487-1.977l0.531-1.482c0.62-0.645,1.56-0.867,2.405-0.574
	l0.008-0.018C35.572,64.519,36.097,65.622,35.646,66.815z M23.06,64.653l1.178,0.84l3.773-5.271l-1.178-0.84L23.06,64.653z
	 M85.596,52.698l-3.989-3.481l-3.34,3.802c1.715,1.465,2.781,2.75,3.312,4.255l-0.59,0.672l2.207,1.926l0.902-1.023l-1.312-1.129
	l3.438-3.917l1.312,1.131l0.898-1.025l-2.207-1.928L85.596,52.698z M82.575,56.136V56.11c-0.594-1.275-1.455-2.408-2.523-3.324
	l1.484-1.693l3.097,2.703L82.575,56.136z M17.406,51.013c-1.102-1.331-3.098-2.083-4.951-0.541c-1.801,1.467-1.483,3.5-0.378,4.828
	c0.462,0.578,1.049,1.043,1.717,1.363l1.031-0.852c-0.618-0.234-1.167-0.623-1.592-1.129c-0.744-0.891-0.989-2.141,0.188-3.113
	c1.178-0.971,2.389-0.463,3.122,0.418c0.412,0.488,0.668,1.09,0.732,1.725l1.022-0.844C18.172,52.183,17.864,51.542,17.406,51.013z
	 M57.247,70.242l0.012-0.016c-0.125,0.037-0.262,0.014-0.367-0.062s-0.172-0.197-0.174-0.33l-0.275-2.304
	c-0.23-1.943-1.49-2.678-3.317-2.459c-0.84,0.111-1.656,0.355-2.419,0.723l0.158,1.314c0.694-0.404,1.466-0.662,2.265-0.752
	c1.103-0.133,1.763,0.359,1.856,1.162l0.027,0.227c-0.566-0.057-1.137-0.057-1.703,0c-1.343,0.158-2.812,0.85-2.615,2.497
	c0.159,1.326,1.321,1.842,2.492,1.701c0.887-0.09,1.713-0.49,2.332-1.129c0.285,0.471,0.838,0.711,1.377,0.598
	c0.312-0.033,0.617-0.125,0.895-0.27l-0.125-1.031C57.532,70.174,57.392,70.217,57.247,70.242z M53.481,70.768
	c-0.644,0.08-1.247-0.176-1.321-0.805l0.01-0.016c-0.088-0.806,0.732-1.159,1.546-1.251c0.469-0.043,0.943-0.043,1.414,0
	l0.129,1.087C54.821,70.334,54.181,70.689,53.481,70.768z M66.046,65.204c0.461-0.438,0.602-1.117,0.346-1.699
	c-0.354-0.95-1.304-1.36-2.534-0.899l-3.471,1.292l2.264,6.065l3.583-1.329c1.406-0.531,1.729-1.48,1.377-2.414
	C67.386,65.56,66.739,65.142,66.046,65.204z M62.139,64.417l1.811-0.674c0.4-0.158,0.928-0.094,1.131,0.447
	c0.205,0.543-0.105,0.873-0.586,1.055l-1.812,0.674L62.139,64.417z M65.512,67.729l-1.887,0.705l-0.58-1.555l1.912-0.713
	c0.475-0.178,1.015-0.146,1.231,0.434C66.403,67.181,66.071,67.522,65.512,67.729z M43.807,65.022
	c-0.815-0.092-1.643-0.01-2.424,0.244l-0.139,1.232c0.725-0.26,1.498-0.357,2.265-0.279c0.928,0.105,1.51,0.496,1.449,1.031
	s-0.604,0.664-1.291,0.588l-1.316-0.146l-0.125,1.098l1.317,0.148c0.645,0.07,1.336,0.23,1.256,0.942
	c-0.079,0.711-0.905,0.793-1.86,0.688c-0.774-0.092-1.519-0.359-2.173-0.781l-0.141,1.23c0.715,0.441,1.523,0.715,2.363,0.789
	l0.011-0.018c1.989,0.221,3.114-0.467,3.224-1.572c0.08-0.754-0.383-1.458-1.106-1.685c0.694-0.062,1.245-0.613,1.302-1.307
	C46.535,66.183,45.797,65.245,43.807,65.022z M71.772,58.189l0.008-0.025c-1.494,1.02-2.25,2.973-0.98,4.821
	c1.269,1.85,3.329,1.871,4.837,0.84c1.512-1.032,2.242-2.948,0.975-4.798C75.344,57.18,73.283,57.16,71.772,58.189z M75.418,62.193
	c-0.471,0.709-1.326,1.065-2.164,0.897c-0.836-0.169-1.489-0.825-1.647-1.661s0.205-1.688,0.921-2.148l0.004-0.035
	c0.453-0.33,1.023-0.453,1.572-0.336s1.02,0.461,1.297,0.945C75.883,60.559,75.889,61.484,75.418,62.193z M10.206,16.288
	l-2.151-0.252l-0.506,4.353l-1.532-0.178l0.453-3.871l-2.14-0.248l-0.449,3.871l-1.441-0.169l0.502-4.274l-2.151-0.248L0,22.023
	l9.409,1.096L10.206,16.288z M13.874,6.461l-2.619-1.435l0.604-1.084c1.132-2.048,1.336-3.965-0.845-5.166
	c-2.182-1.201-3.707,0-4.839,2.033L4.359,4.077l8.303,4.568L13.874,6.461z M10.024,2.809L10.02,2.79L9.36,4.002L7.473,2.96
	l0.661-1.191c0.378-0.658,0.895-1.129,1.642-0.73C10.522,1.438,10.39,2.15,10.024,2.809z M23.441-5.501l-2.197-2.862l2.793-2.131
	l2.196,2.862l1.988-1.517l-5.759-7.497l-1.984,1.518l2.2,2.869l-2.793,2.131l-2.203-2.869l-1.986,1.514l5.756,7.5L23.441-5.501z
	 M54.522-17.17l1.225,0.207c2.311,0.377,4.198-0.053,4.618-2.496c0.418-2.443-1.216-3.486-3.522-3.878l-3.693-0.629l-1.599,9.3
	l2.47,0.418L54.522-17.17z M55.267-21.429l1.346,0.229c0.732,0.136,1.361,0.475,1.217,1.311c-0.145,0.836-0.84,0.949-1.594,0.818
	l-1.348-0.23L55.267-21.429z M83.091-0.817l0.664,0.972l-1.719,3.946l1.562,2.282l2.261-5.291l5.487-0.139l-1.563-2.286
	l-4.172,0.241l-0.672-0.979L87.9-4.085l-1.41-2.06l-7.825,5.316l1.408,2.063L83.091-0.817z M95.979,34.512l0.633-2.412l-9.165-2.378
	l-0.596,2.282l4.317,4.938c-0.422-0.152-0.993-0.312-1.511-0.441l-3.723-0.975l-0.639,2.42l9.163,2.372l0.596-2.281l-4.328-4.938
	c0.424,0.15,0.994,0.312,1.51,0.443L95.979,34.512z M86.689,15.667l5.989,2.685c-0.445,0.038-1.035,0.128-1.539,0.219l-3.81,0.677
	l0.438,2.459l9.322-1.661l-0.415-2.323l-6.004-2.684c0.449-0.038,1.035-0.128,1.555-0.223l3.809-0.678l-0.438-2.454l-9.321,1.66
	L86.689,15.667z M23.208,14.944c0,0,0.989,3.667,3.869,5.32c2.88,1.654,6.566,0.674,6.566,0.674s-0.985-3.664-3.868-5.32
	C26.891,13.961,23.208,14.944,23.208,14.944z M9.538,31.175l-2.344,0.661c0.73,0.488,1.248,1.232,1.45,2.086
	c0.399,1.414,0.075,3.045-1.699,3.543C5.058,38,3.869,36.902,3.419,35.537c0.837-0.102,1.509-0.736,1.655-1.566
	c0.146-0.828-0.27-1.654-1.023-2.033c-0.753-0.38-1.665-0.224-2.247,0.387c0,0-0.053,0.059-0.124,0.156
	c-0.147,0.184-0.257,0.395-0.326,0.621c-0.062,0.156-0.112,0.316-0.146,0.48c-0.148,0.934-0.09,1.887,0.173,2.793
	c0.695,2.458,2.838,4.521,6.276,3.552c3.239-0.906,3.907-3.769,3.201-6.261C10.609,32.748,10.158,31.898,9.538,31.175z
	 M37.821-15.766c-0.02,0.078-0.047,0.154-0.083,0.227c-0.283-0.305-0.679-0.479-1.095-0.482c-0.719,0.001-1.337,0.507-1.479,1.21
	c-0.141,0.703,0.234,1.409,0.898,1.686c0.697,0.305,1.487,0.321,2.196,0.045c0.925-0.437,1.62-1.202,1.956-2.85l1.621-7.859
	l-2.693,0.644l-0.646,4.583l-3.02-3.698l-2.713,0.645l5.125,5.501L37.821-15.766z M77.609-14.169
	c-0.039-0.059-0.078-0.115-0.121-0.17c-0.484-0.664-1.09-1.23-1.785-1.671c-2.16-1.368-5.134-1.48-7.052,1.506
	c-1.814,2.842-0.377,5.418,1.797,6.808c0.797,0.516,1.7,0.849,2.642,0.975l1.307-2.048c-0.871,0.12-1.756-0.093-2.475-0.595
	c-1.247-0.787-2.095-2.222-1.106-3.765c0.988-1.544,2.497-1.624,3.716-1.013c-0.422,0.573-0.488,1.333-0.176,1.971
	c0.314,0.639,0.957,1.05,1.672,1.067c0.711,0.018,1.375-0.36,1.721-0.982l0.018-0.038l0.027-0.079c0-0.03,0.023-0.049,0.039-0.083
	c0.014-0.033,0-0.086,0.027-0.132c0.031-0.045,0.031-0.112,0.043-0.173c0.105-0.492,0.033-1.005-0.203-1.45
	C77.672-14.086,77.635-14.124,77.609-14.169z M98,34.695c-1.105,0-2.001,0.896-2.001,2c0,1.105,0.896,2.001,2.001,2.001
	s2-0.896,2-2.001C100,35.592,99.105,34.695,98,34.695z M74.008,14.944c0,0-3.685-0.983-6.567,0.674
	c-2.884,1.656-3.868,5.32-3.868,5.32s3.688,0.979,6.567-0.674C73.02,18.612,74.008,14.944,74.008,14.944z M34.613,4.834
	c-0.088-0.028-0.18-0.046-0.271-0.053c-0.469-0.001-0.889,0.28-1.066,0.711c-0.18,0.432-0.078,0.927,0.254,1.255
	c0.084,0.092,0.178,0.175,0.279,0.248c4.25,3.061,6.598,6.251,9.006,10.875h11.604c2.412-4.624,4.76-7.814,9.005-10.875
	c0.102-0.073,0.195-0.156,0.281-0.248c0.211-0.214,0.328-0.502,0.328-0.802c0-0.635-0.516-1.149-1.152-1.149
	c-0.092,0.006-0.184,0.023-0.271,0.053c-0.242,0.035-0.482,0.094-0.713,0.177c-4.179,1.461-10.568,6.755-13.3,12.55
	c-2.726-5.794-9.11-11.084-13.29-12.55C35.082,4.939,34.85,4.876,34.613,4.834z M54.798,46.762c0.045-0.107,0.109-0.293,0.18-0.512
	l1.205-4.519c-1.99-2.039-4.722-3.188-7.575-3.182c-2.844,0.002-5.564,1.15-7.549,3.182l1.205,4.519
	c0.071,0.219,0.136,0.404,0.181,0.512c0.717,1.721,3.155,3.012,6.039,3.012h0.275C51.641,49.773,54.079,48.482,54.798,46.762z
	 M48.955,35.148c-0.105,0.871-0.128,1.311-0.321,1.311c0,0,0,0-0.022,0s0,0-0.022,0c-0.192,0-0.22-0.439-0.321-1.311
	C46.23,18.206,35.297,17.942,35.297,17.942s0.293,1.163,0.754,3.012l4.986,18.789c1.988-2.034,4.715-3.181,7.563-3.181
	c2.847,0,5.574,1.146,7.562,3.181l4.979-18.797c0.467-1.841,0.754-3.012,0.754-3.012S50.985,18.206,48.955,35.148z"/>
</svg>
