<?xml version="1.0" encoding="utf-8"?>
<!-- Generator: Adobe Illustrator 16.0.0, SVG Export Plug-In . SVG Version: 6.00 Build 0)  -->
<!DOCTYPE svg PUBLIC "-//W3C//DTD SVG 1.1//EN" "http://www.w3.org/Graphics/SVG/1.1/DTD/svg11.dtd">
<svg version="1.1" id="Layer_1" xmlns="http://www.w3.org/2000/svg" xmlns:xlink="http://www.w3.org/1999/xlink" x="0px" y="0px"
	 width="100px" height="70px" viewBox="0 0 100 70" enable-background="new 0 0 100 70" xml:space="preserve">
<g>
	<path fill-rule="evenodd" clip-rule="evenodd" d="M60.5,18.506c0-0.335,0-0.67,0-1.005c0-4.873,0.174-9.746,0.172-14.618
		c-0.002-1.311,0.275-1.513,1.572-1.516c2.757-0.005,2.705-0.255,2.706,2.618c0.002,8.743,0.043,17.486,0.067,26.229
		c0.003,0.87-0.342,1.276-1.23,1.239c-0.759-0.032-1.521-0.065-2.274,0.007c-1.036,0.1-1.456-0.372-1.711-1.333
		c-1.678-6.345-3.402-12.677-5.115-19.012c-0.068-0.255-0.163-0.502-0.438-0.752c-0.023,0.314-0.065,0.629-0.065,0.944
		c0,6.29-0.009,12.58,0.023,18.869c0.005,0.924-0.275,1.325-1.238,1.31c-3.398-0.054-2.909,0.334-2.916-2.82
		c-0.019-8.57-0.018-17.141-0.026-25.711c-0.001-1.459,0.123-1.587,1.605-1.59c0.968-0.002,1.939,0.054,2.902-0.014
		c1.005-0.071,1.474,0.299,1.734,1.302c1.304,5.014,2.682,10.009,4.035,15.01c0.078,0.291-0.002,0.577,0.086,0.865
		C60.484,18.52,60.5,18.513,60.5,18.506z"/>
	<path fill-rule="evenodd" clip-rule="evenodd" d="M78.426,52.533c2.971,1.469,3.478,3.954,3.483,6.656
		c0.003,1.345,0.006,2.702-0.165,4.031c-0.397,3.081-2.381,5.046-5.471,5.273c-2.545,0.188-5.107,0.133-7.662,0.172
		c-0.887,0.014-1.317-0.42-1.316-1.338c0.009-9.191,0.004-18.383,0.004-27.575c0-0.641,0.151-1.237,0.927-1.239
		c2.625-0.005,5.267-0.147,7.87,0.103c3.358,0.324,4.905,2.011,5.224,5.371c0.139,1.465,0.094,2.97-0.062,4.436
		C81.074,50.147,80.227,51.559,78.426,52.533z M71.5,59.636c0,0.689,0,1.38,0,2.07c0,2.886,0.238,2.886,3.143,2.701
		c1.393-0.089,2.292-0.774,2.426-2.172c0.095-0.992,0.129-1.998,0.13-2.998c0.003-3.617-0.794-4.407-4.38-4.236
		c-0.035,0.002-0.055,0.005-0.089,0.002c-0.59-0.051-1.014,0.241-1.003,0.803C71.749,57.082,71.5,58.358,71.5,59.636z M71.976,46.73
		c0,0.69-0.014,1.38,0.003,2.069c0.055,2.231-0.448,1.977,2.062,1.961c1.621-0.01,2.481-0.803,2.685-2.418
		c0.081-0.646,0.059-1.308,0.059-1.962c0.003-3.146-0.726-3.841-3.864-3.704c-0.034,0.002-0.069,0.004-0.104,0.002
		c-0.604-0.041-0.87,0.21-0.849,0.846C72.004,44.593,71.978,45.662,71.976,46.73z"/>
	<path fill-rule="evenodd" clip-rule="evenodd" d="M43.849,16.769c2.834,1.601,2.992,4.217,3.029,6.9
		c0.031,2.206,0.117,4.411,0.176,6.617c0.02,0.747-0.303,1.185-1.094,1.186c-0.795,0.001-1.59-0.006-2.384,0.004
		c-0.812,0.01-1.205-0.391-1.238-1.191c-0.029-0.725-0.107-1.448-0.115-2.172c-0.02-1.831,0.038-3.664-0.026-5.493
		c-0.096-2.719-1.585-3.909-4.232-3.382c-0.252,0.05-0.567,0.62-0.572,0.952c-0.043,3.213-0.03,6.427-0.022,9.64
		c0.003,1.521-0.104,1.639-1.649,1.644c-0.622,0.002-1.244-0.016-1.866,0.004c-0.859,0.027-1.17-0.444-1.168-1.224
		c0.021-8.707,0.084-17.414,0.041-26.121c-0.017-3.365,0.129-2.72,2.814-2.79c2.168-0.057,4.366-0.036,6.51,0.251
		c2.802,0.375,4.349,2.106,4.631,4.919c0.158,1.575,0.15,3.174,0.116,4.759C46.75,13.52,46.032,15.474,43.849,16.769z M37.5,14.965
		c1,0,1.23,0.015,1.806-0.002c1.938-0.057,2.788-0.908,2.885-2.859c0.046-0.929,0.006-1.861,0.005-2.792
		c-0.002-3.214-0.736-3.888-3.933-3.751c-0.667,0.028-0.848,0.256-0.835,0.921c0.03,1.585,0.071,3.171,0.071,4.757
		C37.5,12.435,37.5,13.631,37.5,14.965z"/>
	<path fill-rule="evenodd" clip-rule="evenodd" d="M96.906,16.829c2.294,1.266,2.857,3.331,2.906,5.655
		c0.054,2.589,0.105,5.178,0.187,7.766c0.025,0.82-0.275,1.245-1.127,1.225c-0.553-0.013-1.105,0-1.658,0.001
		c-1.712,0.004-1.893-0.133-1.938-1.884c-0.057-2.106-0.037-4.214-0.059-6.321c-0.005-0.448-0.008-0.901-0.079-1.341
		c-0.323-1.997-1.183-2.715-3.227-2.736c-1.583-0.016-1.589-0.016-1.585,1.565c0.007,3.144,0.008,6.288,0.04,9.431
		c0.009,0.846-0.263,1.32-1.182,1.291c-0.828-0.027-1.658-0.009-2.487-0.013c-0.635-0.003-0.95-0.338-0.975-0.959
		c-0.011-0.276-0.01-0.553-0.01-0.829c-0.001-8.776-0.002-17.552,0-26.328c0-1.913,0.043-2.016,1.964-2.012
		c2.414,0.004,4.851-0.054,7.237,0.243c2.983,0.372,4.592,2.225,4.804,5.214c0.121,1.718,0.097,3.456,0.01,5.178
		C99.626,13.973,98.992,14.968,96.906,16.829z M90.33,10.206c0,1.312,0.01,2.624-0.005,3.935c-0.007,0.546,0.172,0.851,0.771,0.817
		c0.413-0.022,0.829,0.024,1.242,0.004c1.803-0.087,2.641-0.852,2.798-2.665c0.086-0.994,0.046-2,0.046-3
		c-0.002-3.142-0.713-3.824-3.86-3.725c-0.068,0.002-0.138,0.008-0.207,0.003c-0.578-0.043-0.798,0.235-0.79,0.8
		C90.344,7.651,90.331,8.929,90.33,10.206z"/>
	<path fill-rule="evenodd" clip-rule="evenodd" d="M82.409,13.984c0,3.385,0.007,6.77-0.005,10.154
		c-0.003,0.689-0.016,1.388-0.128,2.065c-0.629,3.788-3.147,5.696-7.333,5.594c-3.626-0.088-5.994-2.239-6.445-5.88
		c-0.089-0.717-0.131-1.444-0.133-2.167C68.35,16.74,68.347,9.729,68.342,2.718c-0.001-1.202,0.259-1.466,1.447-1.478
		c0.622-0.006,1.244-0.008,1.865,0.001c1.127,0.018,1.375,0.275,1.375,1.435c-0.001,3.73-0.008,7.46-0.01,11.19
		c-0.002,3.592-0.014,7.184,0.007,10.776c0.011,1.945,0.936,2.925,2.619,2.863c1.23-0.045,1.984-0.641,2.259-1.88
		c0.118-0.533,0.138-1.095,0.139-1.644c0.005-7.081-0.001-14.161-0.006-21.241c-0.001-1.296,0.2-1.513,1.489-1.523
		c3.143-0.027,2.898-0.155,2.886,2.82C82.398,7.354,82.409,10.669,82.409,13.984z"/>
	<path fill-rule="evenodd" clip-rule="evenodd" d="M63.963,51.134c0,3.456,0.022,6.913-0.015,10.368
		c-0.011,0.96-0.097,1.942-0.325,2.871c-0.647,2.64-2.672,4.339-5.395,4.544c-1.026,0.077-2.089,0.095-3.096-0.081
		c-2.909-0.509-4.688-2.543-5.063-5.646c-0.07-0.581-0.078-1.173-0.079-1.76c-0.009-7.153-0.011-14.308-0.016-21.462
		c-0.001-1.285,0.162-1.461,1.405-1.471c0.691-0.005,1.383,0.013,2.074-0.002c0.784-0.017,1.141,0.365,1.138,1.134
		c-0.005,1.141,0.002,2.281,0.002,3.422c0,6.151-0.006,12.304,0.008,18.455c0.001,0.546,0.049,1.113,0.202,1.632
		c0.338,1.144,1.045,1.571,2.374,1.554c1.229-0.016,1.93-0.479,2.24-1.597c0.146-0.524,0.191-1.09,0.192-1.637
		c0.012-7.12,0.01-14.239,0.004-21.359c-0.001-1.483,0.098-1.602,1.579-1.604c3.04-0.003,2.778-0.286,2.771,2.788
		C63.957,44.567,63.963,47.851,63.963,51.134z"/>
	<path fill-rule="evenodd" clip-rule="evenodd" d="M18.493,53.5c0-3-0.008-5.057,0.005-7.58c0.003-0.689,0.002-1.396,0.121-2.071
		c0.918-5.224,6.983-7.622,11.319-4.482c1.843,1.335,2.405,3.302,2.577,5.428c0.069,0.859,0.022,1.726,0.038,2.59
		c0.014,0.777-0.382,1.147-1.137,1.153c-0.691,0.004-1.382-0.023-2.073-0.013c-0.89,0.014-1.234-0.462-1.232-1.294
		c0.001-0.863,0.041-1.731-0.035-2.589c-0.131-1.493-1.005-2.275-2.431-2.276c-1.435-0.002-2.329,0.759-2.43,2.266
		c-0.106,1.583-0.083,3.176-0.087,4.764c-0.01,3.836-0.005,7.671,0.002,11.507c0.001,0.552,0.014,1.108,0.086,1.654
		c0.188,1.427,1.017,2.124,2.456,2.114c1.43-0.01,2.273-0.712,2.393-2.172c0.099-1.202,0.062-2.416,0.045-3.624
		c-0.013-0.926,0.329-1.424,1.325-1.422c3.486,0.005,3.179-0.218,3.086,3.019c-0.043,1.535-0.218,3.105-0.624,4.58
		c-0.484,1.765-1.798,2.913-3.557,3.479c-1.971,0.636-3.965,0.648-5.897-0.083c-2.76-1.045-3.783-3.331-3.894-6.048
		c-0.121-2.967-0.027-5.899-0.027-8.899C18.513,53.5,18.503,53.5,18.493,53.5z"/>
	<path fill-rule="evenodd" clip-rule="evenodd" d="M6.977,31.823c-5.099,0.077-7.256-3.397-6.948-8.099
		c0.051-0.769,0.472-1.199,1.27-1.207c0.069,0,0.138-0.001,0.208-0.003c2.667-0.08,2.667-0.08,2.871,2.561
		c0.126,1.631,0.963,2.481,2.457,2.497c1.509,0.016,2.37-0.792,2.526-2.426c0.178-1.875-0.513-3.478-1.746-4.823
		c-1.024-1.118-2.14-2.157-3.258-3.183c-2.6-2.387-4.38-5.158-4.254-8.841C0.127,7.543,0.204,6.777,0.365,6.04
		c0.792-3.633,3.683-5.465,7.763-4.958c3.789,0.471,6.2,3.426,5.882,7.215c-0.012,0.136-0.021,0.288-0.084,0.402
		c-0.75,1.351-2.03,0.66-3.085,0.75c-0.771,0.066-1.174-0.475-1.245-1.236C9.562,7.87,9.562,7.52,9.495,7.184
		C9.224,5.855,8.414,5.212,7.09,5.246C5.833,5.278,5.054,5.941,4.831,7.242c-0.31,1.812,0.136,3.481,1.332,4.835
		c1.276,1.445,2.692,2.77,4.085,4.106c2.667,2.557,4.125,5.565,3.72,9.349C13.521,29.719,11.208,31.824,6.977,31.823z"/>
	<path fill-rule="evenodd" clip-rule="evenodd" d="M16.826,16.5c0-5,0.009-9.175-0.008-13.736c-0.003-0.889,0.324-1.401,1.259-1.398
		c3.524,0.01,7.049-0.002,10.574,0.006c0.136,0,0.303-0.007,0.403,0.066c1.208,0.886,0.452,2.155,0.589,3.245
		c0.09,0.711-0.515,0.89-1.126,0.891c-1.935,0.002-3.872,0.044-5.806-0.021c-0.96-0.032-1.249,0.291-1.217,1.24
		c0.066,2.002,0.086,4.011-0.006,6.011c-0.051,1.099,0.349,1.365,1.359,1.301c1.274-0.08,2.557-0.01,3.834-0.038
		c0.865-0.018,1.25,0.362,1.291,1.229c0.143,3.03,0.14,3.045-2.917,3.046c-0.933,0-1.871-0.051-2.796,0.036
		c-0.267,0.025-0.704,0.445-0.709,0.691c-0.053,2.488-0.018,4.977-0.043,7.465c-0.007,0.69,0.354,0.785,0.912,0.78
		c1.97-0.014,3.94,0.028,5.909-0.018c0.99-0.023,1.364,0.376,1.356,1.346c-0.026,3.132,0.223,2.836-2.748,2.833
		c-2.937-0.003-5.873-0.016-8.809,0.018c-1.024,0.012-1.308-0.438-1.305-1.359c0.017-4.562,0.008-9.634,0.008-13.634
		C16.829,16.5,16.828,16.5,16.826,16.5z"/>
	<path fill-rule="evenodd" clip-rule="evenodd" d="M35.543,53.597c-0.001-4.56-0.001-9.118-0.001-13.678
		c0-1.206,0.188-1.408,1.356-1.423c0.656-0.009,1.314,0.028,1.968-0.009c1.004-0.058,1.378,0.442,1.336,1.38
		c-0.019,0.414-0.018,0.828-0.019,1.243c-0.001,7.322,0.017,14.645-0.023,21.967c-0.006,1.013,0.214,1.417,1.307,1.356
		c1.688-0.092,3.383-0.028,5.076-0.02c1.266,0.006,1.407,0.156,1.417,1.454c0.004,0.553-0.011,1.105,0.003,1.658
		c0.022,0.81-0.406,1.086-1.162,1.088c-3.21,0.01-6.42,0.046-9.63,0.06c-1.416,0.006-1.63-0.231-1.628-1.607
		C35.548,62.576,35.545,58.086,35.543,53.597z"/>
</g>
</svg>
