<?xml version="1.0" encoding="utf-8"?>
<!-- Generator: Adobe Illustrator 16.0.0, SVG Export Plug-In . SVG Version: 6.00 Build 0)  -->
<!DOCTYPE svg PUBLIC "-//W3C//DTD SVG 1.1//EN" "http://www.w3.org/Graphics/SVG/1.1/DTD/svg11.dtd">
<svg version="1.1" id="Layer_1" xmlns="http://www.w3.org/2000/svg" xmlns:xlink="http://www.w3.org/1999/xlink" x="0px" y="0px"
	 width="100px" height="100px" viewBox="-35.5 -41 100 100" enable-background="new -35.5 -41 100 100" xml:space="preserve">
<title>Fill 4</title>
<desc>Created with Sketch.</desc>
<g id="Новая-эстетика">
	<g id="Личный-кабинет" transform="translate(-574.000000, -1696.000000)">
		<g id="Group-10" transform="translate(0.000000, 1579.000000)">
			<g id="Group-8">
				<path id="Fill-4" d="M617.985,127.532c-0.118,0.347-0.108,1.263,0.026,1.633c0.802,2.263,4.311,6.089,6.863,8.873
					c2.438,2.65,6.924,7.456,7.987,11.23c-4.97,0.344-10.513,0.681-15.746,0.553c-5.448-0.135-8.055-1.391-11.342-6.096
					c-1.061-1.519-1.451-2.579-2.967-3.781c-5.135-4.085-6.94,2.179-9.51,7.156c-0.138,0.266-0.444,0.538-0.696,0.798
					c-7.491,7.61-25.748-4.301-32.596-13.325c-3.581-4.721-6.683-9.838-9.496-15.086c-2.081-3.886-6.604-10.55-7.754-15.854
					c2.748-0.182,5.502-0.242,8.247-0.293c1.833-0.032,4.199-0.266,6.691-0.18c1.241,3.311,3.25,6.368,4.918,9.442
					c1.768,3.258,3.406,6.702,5.642,9.648c2.839,3.745,7.458,5.885,9.86,0.364c1.852-4.255,1.613-12.805-0.064-17.231
					c-0.485-1.283-2.766-3.278-3.985-4.469c3.713-0.247,8.895-0.087,11.924-0.074c2.437,0.008,5.117,0.096,7.589,0.074
					c0.007,0.037-0.007,0.066,0,0.106c1.101,5.229,1.44,10.356,1.562,15.696c0.061,2.768-0.795,7.154,1.495,9.178
					c0.963,0.855,2.431,1.035,3.381,0c3.395-3.697,6.317-7.799,8.705-12.272c1.744-3.268,3.34-7.119,4.347-11.094
					c3.59-0.081,7.187-0.148,10.675-0.123c3.826,0.027,6.482,0.475,9.665,0.222c-1.536,4.41-4.264,8.107-6.961,11.877
					C623.871,118.11,618.732,123.021,617.985,127.532 M632.606,113.912c2.522-3.613,4.613-7.42,5.806-11.741
					c0.472-1.717-1.037-3.014-2.465-3.322c-4.691-1.024-8.115-1.239-12.204-1.266c-4.041-0.025-8.725-0.936-12.503,0.702
					c-0.633,0.276-1.438,1.63-1.704,2.209c-1.556,3.43-2.96,6.504-4.718,9.806c-1.606,3.021-3.404,5.869-5.411,8.575
					c-0.058-3.011,0.259-7.003,0.188-8.191c-0.209-3.701-0.637-5.691-1.613-9.257c-0.242-0.88-0.684-2.239-2.316-3.374
					c-1.88-1.305-5.2-1.622-9.628-1.509c-6.678,0.177-14.736,0.201-17.068,1.61c-2.228,1.345-0.29,4.209,1.603,5.097
					c3.098,1.456,3.669,4.736,3.773,8.681c0.047,1.758,0.111,3.548,0.025,5.302c0.049,1.357-0.167,2.664-0.633,3.911
					c-0.444,0.052-0.966-0.158-1.401-0.598c-2.972-3.377-4.632-8.104-5.826-10.318c-1.871-3.462-3.618-7.159-5.985-10.293
					c-1.47-1.941-7.139-1.492-9.523-1.471c-3.219,0.025-6.456,0.03-9.669,0.278c-0.864,0.064-1.704,0.836-2.08,1.441
					c-2.354,3.191,1.377,11.177,3.322,15.401c4.347,9.451,9.755,19.233,16.753,26.854c7.157,7.799,28.758,20.084,37.098,7.122
					c2.037-3.169,2.404-5.479,3.597-5.653c1.333-0.195,6.055,8.56,8.331,9.613c5.102,2.364,11.631,2.011,17.062,1.809
					c3.509-0.135,7.991-0.465,9.77-1.751c4.272-2.862,1.107-9.14-1.118-12.405c-1.967-2.89-4.277-5.503-6.533-8.153
					c-1.637-1.93-3.256-3.182-4.943-5.479c0.923-1.792,4.216-5.498,4.728-6.221C629.077,118.847,630.876,116.402,632.606,113.912"/>
			</g>
		</g>
	</g>
</g>
</svg>
