{
  "Items": [
    {
      "Name": "Творог со вкусом манго-маракуйя 4%",
      "FullName": "Ультрафильтрационный, из коровьего молока Творог со вкусом манго-маракуйя 4% ",
      "NamePrefix": "Ультрафильтрационный, из коровьего молока Творог со вкусом манго-маракуйя 4% ",
      "Image": "img/items-img/img0.jpg",
      "ItemPrice": 172,
      "URL": "product.html",
      "Units": "125 г",
      "Count": 10,
      "Field": "cart[48][113]"
    },
    {
      "Name": "Бамбини",
      "FullName": "Сыр из коровьего молока Бамбини",
      "NamePrefix": "Сыр из коровьего молока Бамбини",
      "Image": "img/items-img/img1.jpg",
      "ItemPrice": 1.5,
      "URL": "product.html",
      "Units": "125 мл",
      "Count": 1,
      "Field": "cart[48][123]"
    },
    {
      "Name": "Молога",
      "FullName": "Сыр из коровьего молока Молога",
      "NamePrefix": "Сыр из коровьего молока Бамбини",
      "Image": "img/items-img/img2.jpg",
      "ItemPrice": 187,
      "URL": "product.html",
      "Units": "500 мл",
      "Count": 4,
      "Field": "cart[48][220]"
    }
  ],
  "total": "22"
}