{
	"hero": {
		"type": "deals",
		"header": "Текущие акции",
		"description": "Если вы хотите ничего не пропустить, то мы можем присылать письма со свежими акциями"
	},
	"deals": [
		{
			"title": "В День молодежи –15% на молодые, зрелые и выдержанные сыры!",
			"img": "img/deal-1.png",
			"text": [
				"В России отмечают День молодежи (хотя в некоторых городах празднования прошли уже в минувшие выходные). Мы долго думали, акцию на какие продукты приурочить к этому дню, а потом решили, что возраст имеет значение только для сыра и вина. ",
				"Но так как игристых напитков в нашем ассортименте нет (да-да, нам тоже жалко), то 27 июня 2018 года ловите скидку 15% на ВСЕ сыры линейки Марсенталь (кроме готового набора)! Почему именно на них? Все просто: здесь есть и молодые сыры (Арабески), и зрелые Фуэте и самые выдержанные экстратвердые Турне.",
				"И помните, настоящий возраст — не тот, что в паспорте, а тот, что в душе! ;)"
			],
			"similar": [
				"Успейте купить овечьи сыры со скидкой 15%!",
				"Новые кодовые слова уже в группе ВКонтакте!",
				"Скидка 15% на сыры в коробках!"
			]
		},
		{
			"title": "Успейте купить овечьи сыры со скидкой 15%!",
			"img": "img/deal-2.png"
		},
		{
			"title": "Новые кодовые слова уже в группе ВКонтакте!",
			"img": "img/deal-3.png"
		}
	],
	"head": {
		"topMenu": [
			{
				"title": "Вопросы и ответы"
			},
			{
				"title": "Оплата и доставка"
			},
			{
				"title": "Оферта"
			},
			{
				"title": "Адрес и контакты"
			},
			{
				"title": "Юрлицам"
			}
		],
		"menu": [
			{
				"title": "Каталог"
			},
			{
				"title": "Акции",
				"active": true
			},
			{
				"title": "Рецепты"
			},
			{
				"title": "Блог"
			}
		],
		"email": "shop@kozi.ru",
		"phone": "8 800 200-83-62",
		"search": {
			"field": {
				"placeholder": "Найти и съесть",
				"type": "text",
				"icon": "search",
				"color": "white",
				"name": "search"
			},
			"button": {
				"text": "Показать все 5",
				"href": "#"
			},
			"list": [
				{
					"img": "item-1.jpg",
					"title": "Творог ванильный пломбир 4%",
					"subtitle": "Ультрафильтрационный, из коровьего молока",
					"price": 95,
					"weight": 180
				},
				{
					"img": "item-2.jpg",
					"title": "Творог 5%",
					"subtitle": "Из коровьего молока",
					"price": 95,
					"weight": 180
				},
				{
					"img": "item-3.jpg",
					"title": "Kozilakt 4%",
					"subtitle": "Творог из козьего молока для детского питания",
					"price": 400,
					"weight": 400
				}
			]
		},
		"cart": {
			"button": {
				"text": "Корзина",
				"href": "cart.html"
			},
			"amount": {
				"num": 4,
				"link": "cart.html"
			},
			"orderList": [
				{
					"title": "Творог ванильный пломбир 4%",
					"price": 95
				},
				{
					"title": "Kozilakt 4%",
					"price": 200
				},
				{
					"title": "Сернурская Рикотта Карамель тоффи ×10",
					"price": 850
				}
			]
		},
		"private": {
			"text": "Константин"
		}
	},
	"footer": {
		"mainMenu": [
			{
				"title": "Каталог"
			},
			{
				"title": "Акции"
			},
			{
				"title": "Рецепты"
			},
			{
				"title": "Блог"
			}
		],
		"slaveMenu": [
			{
				"title": "Оферта"
			},
			{
				"title": "Оплата и доставка"
			},
			{
				"title": "Юрлицам"
			},
			{
				"title": "Адрес и реквизиты"
			}
		]
	}
}