{
	"page": {
		"bill": {
			"url": "resources/bill.json",
			"header": {
				"text": "Получить счёт для юрлица",
				"level": 2
			},
			"inn": {
				"validate": "mask",
				"placeholder": "ИНН организации",
				"value": "",
				"type": "text",
				"label": "ИНН организации",
				"mask": "##########",
				"error": "Неверный формат ИНН",
				"name": "inn"
			},
			"phone": {
				"validate": "tel",
				"placeholder": "Номер телефона",
				"type": "tel",
				"label": "Номер телефона",
				"error": "Неверный формат номера",
				"name": "phone"
			},
			"agree": {
				"type": "checkbox",
				"label": "Соглашаюсь с&nbsp;<a href='#'>Пользовательским соглашением</a> и&nbsp;<a href='#'>Офертой</a>",
				"error": "Вы должны принять условия",
				"checkboxSmall": true,
				"validate": "checkbox",
				"name": "agree",
				"labelLink": true
			},
			"btn": {
				"text": "Сгенерировать счёт"
			},
			"closeBtn": {
				"text": "ОK"
			}
		},
		"card": {
			"product": "Творог 4%",
			"description": "Ультрафильтрационный, из коровьего молока, в ведерке",
			"price": "287,5",
			"oldprice": 210,
			"fullPrice": 1150,
			"quantity": "250 г",
			"action": "resources/cartChange.json",
			"counter": {
				"flex": true,
				"initial": 0.250,
				"increment": 0.250,
				"negative": false,
				"name": "cart[48][117]",
				"min": 0.25
			},
			"button": {
				"text": "Купить за 100098 ₽",
				"color": "yellow",
				"noWrap": true,
				"big": true,
				"full": true
			}
		},
		"product": {
			"type": "set",
			"img": {
				"src": "img/items-img/img13.jpg"
			},
			"price": {
				"cur": 75,
				"weight": 100
			},
			"desc": "Сыр из коровьего молока из коровьего молока",
			"name": "Российский Император",
			"new": true,
			"notAvailable": true,
			"discount": 12,
			"collection": "Коллекция к чаю",
			"info": true
		},
		"description": [
			"Полюбившийся многим мягкий ультрафильтрационный творог теперь в большой удобной семейной упаковке — в ведерке весом 500 гр!",
			"Метод ультрафильтрации делает этот творог более нежным и однородным по сравнению с традиционным творогом, а также обеспечивает легкое усвоение продукта и повышает его полезные свойства.",
			"Состав, вкус, польза творога в ведерке — все, как у мягкого творожка в стаканчиках. Но при этом большие объемы. Теперь его точно хватит на всех."
		],
		"nutritionalValue": {
			"header": "Пищевая ценность",
			"content": [
				{
					"header": "Белки",
					"description": "25,7 г"
				},
				{
					"header": "Жиры",
					"description": "27 г"
				},
				{
					"header": "Углеводы",
					"description": "0 г"
				},
				{
					"header": "Килокаллории",
					"description": "335"
				}
			]
		},
		"bestBy": {
			"header": "Срок годности",
			"content": [
				{
					"header": "Головка",
					"description": "125 суток"
				},
				{
					"header": "Кусок",
					"description": "25 суток"
				},
				{
					"header": "Температура хранения",
					"description": "– 4…0 ºC"
				}
			]
		},
		"composition": {
			"header": "Состав",
			"content": "Изготовлено из пастеризованного и обезжиренного козьего молока, с использованием мезофильных молочнокислых микроорганизмов, молокосвертывающего ферментного препарата животного происхождения, поваренной пищевой соли."
		},
		"delivery": {
			"header": "Доставка",
			"toMoscow": {
				"header": "По Москве",
				"description": [
					"Доставляем заказы по Москве и ближайшему Подмосковью по понедельникам, средам и субботам, с 7 до 23 часов.",
					"Стоимость доставки 300 рублей. При заказе на сумму свыше 4500 рублей доставим бесплатно."
				]
			},
			"byMKAD": {
				"header": "За МКАД",
				"ranges": [
					{
						"header": "5—10 км",
						"description": "500 ₽"
					},
					{
						"header": "10—20 км",
						"description": "800 ₽"
					},
					{
						"header": "20—30 км",
						"description": "1000 ₽"
					},
					{
						"header": "30-40 км",
						"description": "1400 ₽"
					}
				],
				"description": "При заказе на сумму свыше 8500 рублей сделаем скидку 400 рублей."
			},
			"pickup": {
				"header": "Самовывоз",
				"description": "Вы можете забрать заказ в удобное время из пунктов самовывоза в Москве и Йошкар-Оле.",
				"link": "Адреса и режим работы пунктов"
			}
		},
		"recommended": {
			"header": "Рекомендованные товары",
			"products": [
				{
					"type": "set",
					"img": {
						"src": "img/items-img/img13.jpg"
					},
					"price": {
						"cur": 75,
						"weight": 100
					},
					"desc": "Сыр из коровьего молока из коровьего молока",
					"name": "Российский Император",
					"new": true,
					"discount": 12,
					"collection": "Коллекция к чаю"
				},
				{
					"type": "set",
					"img": {
						"src": "img/items-img/img11.jpg"
					},
					"price": {
						"cur": 75,
						"weight": 100
					},
					"desc": "Сыр из коровьего молока из коровьего молока",
					"name": "Российский Император",
					"new": true,
					"discount": 12,
					"collection": "Коллекция к чаю"
				},
				{
					"type": "set",
					"img": {
						"src": "img/items-img/img1.jpg"
					},
					"price": {
						"cur": 75,
						"weight": 100
					},
					"desc": "Сыр из коровьего молока из коровьего молока",
					"name": "Российский Император",
					"new": true,
					"discount": 12,
					"collection": "Коллекция к чаю"
				},
				{
					"type": "set",
					"img": {
						"src": "img/items-img/img12.jpg"
					},
					"price": {
						"cur": 75,
						"weight": 100
					},
					"desc": "Сыр из коровьего молока из коровьего молока",
					"name": "Российский Император",
					"new": true,
					"discount": 12,
					"collection": "Коллекция к чаю"
				}
			]
		}
	},
	"head": {
		"topMenu": [
			{
				"title": "Вопросы и ответы"
			},
			{
				"title": "Оплата и доставка"
			},
			{
				"title": "Оферта"
			},
			{
				"title": "Адрес и контакты"
			},
			{
				"title": "Юрлицам"
			}
		],
		"menu": [
			{
				"title": "Каталог"
			},
			{
				"title": "Акции",
				"active": true
			},
			{
				"title": "Рецепты"
			},
			{
				"title": "Блог"
			}
		],
		"email": "shop@kozi.ru",
		"phone": "8 800 200-83-62",
		"search": {
			"field": {
				"placeholder": "Найти и съесть",
				"type": "text",
				"icon": "search",
				"color": "white",
				"name": "search"
			},
			"button": {
				"text": "Показать все 5",
				"href": "#"
			},
			"list": [
				{
					"img": "item-1.jpg",
					"title": "Творог ванильный пломбир 4%",
					"subtitle": "Ультрафильтрационный, из коровьего молока",
					"price": 95,
					"weight": 180
				},
				{
					"img": "item-2.jpg",
					"title": "Творог 5%",
					"subtitle": "Из коровьего молока",
					"price": 95,
					"weight": 180
				},
				{
					"img": "item-3.jpg",
					"title": "Kozilakt 4%",
					"subtitle": "Творог из козьего молока для детского питания",
					"price": 400,
					"weight": 400
				}
			]
		},
		"cart": {
			"button": {
				"text": "Корзина",
				"href": "cart.html"
			},
			"amount": {
				"num": 0,
				"link": "cart.html"
			},
			"orderList": [
				{
					"title": "Творог ванильный пломбир 4%",
					"price": 95
				},
				{
					"title": "Kozilakt 4%",
					"price": 200
				},
				{
					"title": "Сернурская Рикотта Карамель тоффи ×10",
					"price": 850
				}
			]
		},
		"private": {
			"text": "Константин"
		}
	},
	"footer": {
		"mainMenu": [
			{
				"title": "Каталог"
			},
			{
				"title": "Акции"
			},
			{
				"title": "Рецепты"
			},
			{
				"title": "Блог"
			}
		],
		"slaveMenu": [
			{
				"title": "Оферта"
			},
			{
				"title": "Оплата и доставка"
			},
			{
				"title": "Юрлицам"
			},
			{
				"title": "Адрес и реквизиты"
			}
		]
	}
}