{
	"text": {
		"title": "Москва — Петушки",
		"contents": [
			{
				"header": "Уведомление автора",
				"anchor": "notice"
			},
			{
				"paragraph": "Первое издание «Москва-Петушки», благо было в одном экземпляре, быстро разошлось. Я получил с тех пор много нареканий за главу «Серп и молот — Карачарово», и совершенно напрасно. Во вступлении к первому изданию я предупреждал всех девушек, что главу «Серп и молот — Карачарово» следует пропустить, не читая, поскольку за фразой «и немедленно выпил» следует полторы страницы чистейшего мата, что во всей этой главе нет ни единого цензурного слова, за исключением фразы «и немедленно выпил». Добросовестным уведомлением этим я добился того, что все читатели, особенно девушки, сразу хватались за главу «Серп и молот — Карачарово», даже не читая предыдущих глав, даже не прочитав фразы «и немедленно выпил». По этой причине я счел необходимым во втором издании выкинуть из главы «Серп и молот — Карачарово» всю бывшую там матерщину. Так будет лучше, потому что, во-первых, меня станут читать подряд, а во-вторых, не будут оскорблены."
			},
			{
				"header": "Москва. На пути к Курскому вокзалу.",
				"anchor": "kursk"
			},
			{
				"paragraph": "Все говорят: Кремль, Кремль. Ото всех я слышал про него, а сам ни разу не видел. Сколько раз уже (тысячу раз), напившись, или с похмелюги, проходил по Москве с севера на юг, с запада на восток, из конца в конец и как попало — и ни разу не видел Кремля."
			},
			{
				"paragraph": "Вот и вчера опять не увидел — а ведь целый вечер крутился вокруг тех мест, и не так чтоб очень пьян был: я как только вышел на Савеловском, выпил для начала стакан зубровки, потому что по опыту знаю, что в качестве утреннего декохта люди ничего лучшего еще не придумали."
			},
			{
				"header": "Москва. Площадь Курского вокзала",
				"anchor": "square"
			},
			{
				"paragraph": "Ну вот, я же знал, что говорил: пойдешь направо — обязательно попадешь на Курский вокзал. Скучно тебе было в этих проулках, Веничка, захотел ты суеты — вот и получай свою суету..."
			},
			{
				"paragraph": "Какие они милые!.. Ну что ж... Идти так идти. И как хорошо, что я вчера гостинцев купил, — не ехать же в Петушки без гостинцев. В Петушки без гостинцев никак нельзя. Это ангелы мне напомнили о гостинцах, потому что те, для кого они куплены, сами напоминают ангелов. Хорошо, что купил... А когда ты их вчера купил? Вспомни... Иди и вспоминай... Я пошел через площадь — вернее, не пошел, а повлекся. Два или три раза я останавливался и застывал на месте — чтобы унять в себе дурноту. Ведь в человеке не одна только физическая сторона^; в нем и духовная сторона есть, и есть — больше того — есть сторона мистическая, сверхдуховная сторона. Так вот, я каждую минуту ждал, что меня посреди площади начнет тошнить со всех трех сторон. И опять останавливался и застывал. Так когда же вчера ты купил свои гостинцы? После охотничьей? Нет. После охотничьей мне было не до гостинцев. Между первым и вторым стаканом охотничьей? Тоже нет. Между ними была пауза в тридцать секунд, а я не сверхчеловек, чтобы в тридцать секунд что-нибудь успеть. Да сверхчеловек и свалился бы после первого стакана охотничьей, так и не выпив второго... Так когда же? Боже милостивый, сколько в мире тайн! Непроницаемая завеса тайн! До кориандровой или между пивом и альб-де-дессертом?"
			},
			{
				"header": "Москва — Серп и Молот",
				"anchor": "serp"
			},
			{
				"paragraph": "И тогда все, все расскажу. Потерпите. Ведь я-то терплю! Ну конечно, все они считают меня дурным человеком. По утрам и с перепою я сам о себе такого же мнения. Но ведь нельзя же доверять мнению человека, который не успел похмелиться! Зато по вечерам — какие во мне бездны! — если, конечно, хорошо набраться за день — какие бездны во мне по вечерам! Но — пусть. Пусть я дурной человек. Я вообще замечаю: если человеку по утрам бывает скверно, а вечером он полон замыслов, и грез, и усилий — он очень дурной, этот человек. Утром плохо, вечером хорошо — верный признак дурного человека. Вот уж если наоборот — если по утрам человек бодрится и весь в надеждах, а к вечеру его одолевает изнеможение — это уж точно человек дрянь, деляга и посредственность. Гадок мне этот человек. Не знаю, как вам, а мне гадок."
			},
			{
				"paragraph": "Конечно, бывают и такие, кому одинаково любо и утром, и вечером, и вос ходу они рады, и заходу тоже рады — так это уж просто мерзавцы, о них и говорить-то противно. Ну уж, а если кому одинаково скверно — и утром, и вечером, — тут уж я не знаю, что и сказать, это уж конченый подонок и мудозвон. Потому что магазины у нас работают до девяти, а елисеевский — тот даже до одиннадцати, и если ты не подонок, ты всегда сумеешь к вечеру подняться до чего-нибудь, до какой-нибудь пустяшной бездны..."
			}
		]
	},
	"sidebar": [
		{
			"title": "Контакты"
		},
		{
			"title": "Оплата и доставка"
		},
		{
			"title": "Москва — Петушки",
			"active": "true"
		},
		{
			"title": "Юрлицам"
		},
		{
			"title": "Оферта"
		},
		{
			"title": "Пользовательское соглашение"
		}
	],
	"head": {
		"topMenu": [
			{
				"title": "Вопросы и ответы"
			},
			{
				"title": "Оплата и доставка"
			},
			{
				"title": "Оферта"
			},
			{
				"title": "Адрес и контакты"
			},
			{
				"title": "Юрлицам"
			}
		],
		"menu": [
			{
				"title": "Каталог"
			},
			{
				"title": "Акции"
			},
			{
				"title": "Рецепты"
			},
			{
				"title": "Блог"
			}
		],
		"email": "shop@kozi.ru",
		"phone": "8 800 200-83-62",
		"search": {
			"field": {
				"placeholder": "Найти и съесть",
				"type": "text",
				"icon": "search",
				"color": "white",
				"name": "search"
			},
			"button": {
				"text": "Показать все 5",
				"href": "#"
			},
			"list": [
				{
					"img": "item-1.jpg",
					"title": "Творог ванильный пломбир 4%",
					"subtitle": "Ультрафильтрационный, из коровьего молока",
					"price": 95,
					"weight": 180
				},
				{
					"img": "item-2.jpg",
					"title": "Творог 5%",
					"subtitle": "Из коровьего молока",
					"price": 95,
					"weight": 180
				},
				{
					"img": "item-3.jpg",
					"title": "Kozilakt 4%",
					"subtitle": "Творог из козьего молока для детского питания",
					"price": 400,
					"weight": 400
				}
			]
		},
		"cart": {
			"button": {
				"text": "Корзина",
				"href": "cart.html"
			},
			"amount": {
				"num": 3,
				"link": "cart.html"
			},
			"orderList": [
				{
					"title": "Творог ванильный пломбир 4%",
					"price": 95
				},
				{
					"title": "Kozilakt 4%",
					"price": 200
				},
				{
					"title": "Сернурская Рикотта Карамель тоффи ×10",
					"price": 850
				}
			]
		},
		"private": {
			"text": "Константин"
		}
	},
	"footer": {
		"mainMenu": [
			{
				"title": "Каталог"
			},
			{
				"title": "Акции"
			},
			{
				"title": "Рецепты"
			},
			{
				"title": "Блог"
			}
		],
		"slaveMenu": [
			{
				"title": "Оферта"
			},
			{
				"title": "Оплата и доставка"
			},
			{
				"title": "Юрлицам"
			},
			{
				"title": "Адрес и реквизиты"
			}
		]
	}
}